{
	"info": {
		"_postman_id": "a7f37d61-3afd-41de-b2b9-08b6ba54efa1",
		"name": "s33",
		"schema": "https://schema.getpostman.com/json/collection/v2.1.0/collection.json",
		"_exporter_id": "27672850"
	},
	"item": [
		{
			"name": "discussion",
			"item": [
				{
					"name": "GET example",
					"request": {
						"method": "GET",
						"header": [],
						"url": {
							"raw": "https://official-joke-api.appspot.com/jokes/programming/random",
							"protocol": "https",
							"host": [
								"official-joke-api",
								"appspot",
								"com"
							],
							"path": [
								"jokes",
								"programming",
								"random"
							]
						}
					},
					"response": []
				},
				{
					"name": "GET Posts",
					"request": {
						"method": "GET",
						"header": [],
						"url": {
							"raw": "https://jsonplaceholder.typicode.com/posts",
							"protocol": "https",
							"host": [
								"jsonplaceholder",
								"typicode",
								"com"
							],
							"path": [
								"posts"
							]
						}
					},
					"response": []
				},
				{
					"name": "GET Specific Post",
					"request": {
						"method": "GET",
						"header": []
					},
					"response": []
				},
				{
					"name": "POST Create a Task",
					"request": {
						"method": "POST",
						"header": [
							{
								"key": "Content-Type",
								"value": "application/json",
								"type": "text"
							}
						],
						"url": {
							"raw": "https://jsonplaceholder.typicode.com/posts/",
							"protocol": "https",
							"host": [
								"jsonplaceholder",
								"typicode",
								"com"
							],
							"path": [
								"posts",
								""
							],
							"query": [
								{
									"key": "",
									"value": "",
									"disabled": true
								}
							]
						}
					},
					"response": []
				},
				{
					"name": "PUT Update whole object",
					"request": {
						"method": "PUT",
						"header": []
					},
					"response": []
				},
				{
					"name": "PATCH update specific property in object",
					"request": {
						"method": "PATCH",
						"header": [],
						"body": {
							"mode": "raw",
							"raw": "{   \r\n    \"title\" : \"Hello\"\r\n}"
						},
						"url": {
							"raw": "https://jsonplaceholder.typicode.com/posts/1",
							"protocol": "https",
							"host": [
								"jsonplaceholder",
								"typicode",
								"com"
							],
							"path": [
								"posts",
								"1"
							]
						}
					},
					"response": []
				},
				{
					"name": "DELETE specific task",
					"request": {
						"method": "DELETE",
						"header": [
							{
								"key": "Content-Type",
								"value": "application/json",
								"type": "text"
							}
						],
						"url": {
							"raw": "https://jsonplaceholder.typicode.com/posts/1",
							"protocol": "https",
							"host": [
								"jsonplaceholder",
								"typicode",
								"com"
							],
							"path": [
								"posts",
								"1"
							]
						}
					},
					"response": []
				}
			]
		},
		{
			"name": "activity",
			"item": []
		}
	]
}