{
	"transactionId" : 1,
	"courseId" : 1,
	"userID" :1,
	"isPaid" : true,
	"date" : "05/23/2023",
	"paymentScheme" : "cashG"

}

{
	"transactionId" : 2,
	"courseId" : 2,
	"userID" :1,
	"isPaid" : false,
	"date" : "05/23/2023",
	"paymentScheme" : "SNPL"

}